<svg xmlns="http://www.w3.org/2000/svg" xmlns:xlink="http://www.w3.org/1999/xlink" width="20" height="17">
  <defs>
    <path id="a" d="M0 0h24v24H0z"/>
  </defs>
  <g fill="none" fill-rule="evenodd" transform="translate(-2 -3)">
    <mask id="b" fill="#fff">
      <use xlink:href="#a"/>
    </mask>
    <g fill="#000" fill-rule="nonzero" mask="url(#b)">
      <path d="M17.006 7.59h-4.602V3.822c0-.7-.824-1.079-1.356-.623l-8.761 7.51a.822.822 0 0 0 0 1.247l8.761 7.51a.822.822 0 0 0 1.356-.624v-3.768h4.602c1.373 0 2.314.58 2.876 1.774.458.974.475 1.99.475 1.999A.821.821 0 0 0 22 18.842v-6.258a5 5 0 0 0-4.994-4.994zm3.351 7.111c-.905-.885-2.07-1.27-3.35-1.27h-5.424a.821.821 0 0 0-.821.821v2.804l-6.679-5.724 6.678-5.724v4.89a.821.821 0 1 0 1.643 0V9.233h4.602a3.354 3.354 0 0 1 3.351 3.35v2.118z"/>
    </g>
  </g>
</svg>
