<svg xmlns="http://www.w3.org/2000/svg" width="18" height="18">
  <g fill="#FFF">
    <path d="M4.18 11.281l.66-.084 12.636-1.602A.6.6 0 0 0 18 9V3a.6.6 0 0 0-.6-.6H3.927L3.59.496A.6.6 0 0 0 3 0H.6a.6.6 0 1 0 0 1.2h1.897l1.567 8.886-.034.004a1.862 1.862 0 0 0 .23 3.71H17.4a.6.6 0 1 0 0-1.2H4.26a.663.663 0 1 1-.08-1.319zM16.8 3.6v4.871L5.256 9.935 4.14 3.6H16.8z"/>
    <path d="M6.6 14.4c.993 0 1.8.807 1.8 1.8S7.593 18 6.6 18s-1.8-.807-1.8-1.8.807-1.8 1.8-1.8zm0 1.2a.6.6 0 1 0 .001 1.201A.6.6 0 0 0 6.6 15.6z" opacity=".9"/>
    <path d="M15 14.4c.993 0 1.8.807 1.8 1.8S15.993 18 15 18s-1.8-.807-1.8-1.8.807-1.8 1.8-1.8zm0 1.2a.6.6 0 1 0 .001 1.201A.6.6 0 0 0 15 15.6z"/>
  </g>
</svg>
