<svg xmlns="http://www.w3.org/2000/svg" xmlns:xlink="http://www.w3.org/1999/xlink" width="22" height="22">
  <defs>
    <path id="a" d="M0 0h24v24H0z"/>
  </defs>
  <g fill="none" fill-rule="evenodd" transform="translate(-1 -1)">
    <mask id="b" fill="#fff">
      <use xlink:href="#a"/>
    </mask>
    <g fill="#000" fill-rule="nonzero" mask="url(#b)">
      <path d="M22.271 11.293H13.58a.686.686 0 0 1 0-1.373h8.691a.686.686 0 0 1 0 1.373z"/>
      <path d="M18.84 14.724a.687.687 0 0 1-.485-1.172l2.946-2.946-2.946-2.946a.686.686 0 1 1 .971-.97l3.43 3.43a.686.686 0 0 1 0 .97l-3.43 3.431a.682.682 0 0 1-.486.203zM8.32 22.957c-.197 0-.383-.027-.568-.085l-5.506-1.834A1.847 1.847 0 0 1 1 19.298V2.83C1 1.821 1.82 1 2.83 1c.195 0 .381.028.567.085L8.903 2.92c.749.261 1.246.96 1.246 1.74v16.468c0 1.009-.82 1.83-1.83 1.83zM2.83 2.373a.459.459 0 0 0-.458.457v16.468c0 .195.131.376.318.44l5.48 1.827c.04.013.09.02.15.02a.459.459 0 0 0 .456-.457V4.66a.475.475 0 0 0-.317-.441l-5.48-1.826a.497.497 0 0 0-.15-.02z"/>
      <path d="M14.952 8.32a.686.686 0 0 1-.686-.687V3.516c0-.63-.513-1.143-1.144-1.143H2.83A.686.686 0 0 1 2.83 1h10.292a2.518 2.518 0 0 1 2.516 2.516v4.117a.686.686 0 0 1-.686.686zM13.122 20.213h-3.66a.686.686 0 0 1 0-1.373h3.66c.63 0 1.144-.513 1.144-1.143V13.58a.686.686 0 0 1 1.372 0v4.117a2.518 2.518 0 0 1-2.516 2.516z"/>
    </g>
  </g>
</svg>
