<svg xmlns="http://www.w3.org/2000/svg" width="30" height="36" viewBox="0 0 30 36">
    <path fill="#000" fill-rule="nonzero" stroke="#000" d="M15.625 1.296c-.264-.395-.917-.395-1.18 0-1.068 1.6-9.41 5.355-12.457 5.355-.391 0-.988.318-.988.71v13.47c0 6.93 12.845 13.941 13.557 14.143.062.017.267.026.332.026.066 0 .479-.01.541-.026.59-.167 13.626-7.699 13.626-13.434V7.36c0-.39-.597-.709-.988-.709-3.415 0-11.407-3.803-12.443-5.355zm11.872 20.243c0 4.28-10.656 11.033-12.468 11.977-1.769-.9-12.47-7.174-12.47-12.686V8.023c4.676-.4 10.224-3.269 12.474-5.289 2.194 1.999 7.788 4.923 12.464 5.295v13.51z"/>
</svg>
